<?xml version="1.0" encoding="utf-8"?>
<!-- Generator: Adobe Illustrator 20.1.0, SVG Export Plug-In . SVG Version: 6.00 Build 0)  -->
<svg version="1.1" id="Layer_1" xmlns="http://www.w3.org/2000/svg" xmlns:xlink="http://www.w3.org/1999/xlink" x="0px" y="0px"
	 viewBox="0 0 48 48" style="enable-background:new 0 0 48 48;" xml:space="preserve">
<style type="text/css">
	.st0{fill:none;}
</style>
<path class="st0" d="M0,0h48v48H0V0z"/>
<path d="M6,30.3h36v-4H6V30.3z M6,20.3h36v-4H6V20.3z M6,6.3v4h36v-4H6z"/>
<g>
	<path d="M7.8,32.9l2.8,7l2.8-7h1.5v8.5h-1.1v-3.3l0.1-3.6L11,41.4h-0.9l-2.8-6.9l0.1,3.6v3.3H6.3v-8.5H7.8z"/>
	<path d="M22.8,37.5h-3.7v3h4.3v0.9H18v-8.5h5.4v0.9h-4.2v2.7h3.7V37.5z"/>
	<path d="M32.6,41.4h-1.1l-4.3-6.6v6.6H26v-8.5h1.1l4.3,6.6v-6.6h1.1V41.4z"/>
	<path d="M41.8,32.9v5.8c0,0.8-0.3,1.5-0.8,2s-1.2,0.8-2,0.9l-0.3,0c-0.9,0-1.7-0.3-2.2-0.8s-0.8-1.2-0.8-2.1v-5.8h1.1v5.8
		c0,0.6,0.2,1.1,0.5,1.4s0.8,0.5,1.5,0.5c0.6,0,1.1-0.2,1.5-0.5s0.5-0.8,0.5-1.4v-5.8H41.8z"/>
</g>
</svg>
